[Settings]
AmbientLightR=0.180000
AmbientLightG=0.390000
AmbientLightB=0.530000
SceneLightR=1.000000
SceneLightG=0.930000
SceneLightB=0.810000
SceneLightX=-0.005813
SceneLightY=-0.042819
SceneLightZ=-0.225032
SceneLightW=0.973393
SceneLightDistance=984.639965
SceneLightIntensity=1.000000
SceneLightAttenStart=1000000.000000
SceneLightAttenEnd=1000000.000000
SceneLightAttenOn=1
BackgroundR=0.620000
BackgroundG=0.870000
BackgroundB=1.000000
BackgroundBMP=
