[Settings]
AmbientLightR=0.120000
AmbientLightG=0.120000
AmbientLightB=0.120000
SceneLightR=1.000000
SceneLightG=0.330000
SceneLightB=0.000000
SceneLightX=-0.155723
SceneLightY=0.401743
SceneLightZ=-0.121737
SceneLightW=0.894166
SceneLightDistance=22113.502593
SceneLightIntensity=1.000000
SceneLightAttenStart=1000000.000000
SceneLightAttenEnd=1000000.000000
SceneLightAttenOn=1
BackgroundR=0.000000
BackgroundG=0.000000
BackgroundB=0.000000
BackgroundBMP=
