^D:\REPOS\VEG1\MORVEG\NET7\MAILSLOTMANAGER.CPP
/c /I../NET7 /ZI /nologo /W3 /WX- /diagnostics:classic /Od /Oy- /D WIN32 /D NET7SSL /D _MBCS /Gm /EHsc /RTC1 /MDd /GS /fp:precise /Zc:wchar_t /Zc:forScope /Zc:inline /Fo"DEBUG\\" /Fd"DEBUG\VC141.PDB" /Gd /TP /analyze- /FC D:\REPOS\VEG1\MORVEG\NET7\MAILSLOTMANAGER.CPP
^D:\REPOS\VEG1\MORVEG\NET7\MESSAGEQUEUE.CPP
/c /I../NET7 /ZI /nologo /W3 /WX- /diagnostics:classic /Od /Oy- /D WIN32 /D NET7SSL /D _MBCS /Gm /EHsc /RTC1 /MDd /GS /fp:precise /Zc:wchar_t /Zc:forScope /Zc:inline /Fo"DEBUG\\" /Fd"DEBUG\VC141.PDB" /Gd /TP /analyze- /FC D:\REPOS\VEG1\MORVEG\NET7\MESSAGEQUEUE.CPP
^D:\REPOS\VEG1\MORVEG\NET7\MUTEX.CPP
/c /I../NET7 /ZI /nologo /W3 /WX- /diagnostics:classic /Od /Oy- /D WIN32 /D NET7SSL /D _MBCS /Gm /EHsc /RTC1 /MDd /GS /fp:precise /Zc:wchar_t /Zc:forScope /Zc:inline /Fo"DEBUG\\" /Fd"DEBUG\VC141.PDB" /Gd /TP /analyze- /FC D:\REPOS\VEG1\MORVEG\NET7\MUTEX.CPP
^D:\REPOS\VEG1\MORVEG\NET7\MYSQL\MYSQLPLUS.CPP
/c /I../NET7 /ZI /nologo /W3 /WX- /diagnostics:classic /Od /Oy- /D WIN32 /D NET7SSL /D _MBCS /Gm /EHsc /RTC1 /MDd /GS /fp:precise /Zc:wchar_t /Zc:forScope /Zc:inline /Fo"DEBUG\\" /Fd"DEBUG\VC141.PDB" /Gd /TP /analyze- /FC D:\REPOS\VEG1\MORVEG\NET7\MYSQL\MYSQLPLUS.CPP
^D:\REPOS\VEG1\MORVEG\NET7SSL\ACCOUNTMANAGER.CPP
/c /I../NET7 /ZI /nologo /W3 /WX- /diagnostics:classic /Od /Oy- /D WIN32 /D NET7SSL /D _MBCS /Gm /EHsc /RTC1 /MDd /GS /fp:precise /Zc:wchar_t /Zc:forScope /Zc:inline /Fo"DEBUG\\" /Fd"DEBUG\VC141.PDB" /Gd /TP /analyze- /FC D:\REPOS\VEG1\MORVEG\NET7SSL\ACCOUNTMANAGER.CPP
^D:\REPOS\VEG1\MORVEG\NET7SSL\CLIENTTOGLOBALSERVER.CPP
/c /I../NET7 /ZI /nologo /W3 /WX- /diagnostics:classic /Od /Oy- /D WIN32 /D NET7SSL /D _MBCS /Gm /EHsc /RTC1 /MDd /GS /fp:precise /Zc:wchar_t /Zc:forScope /Zc:inline /Fo"DEBUG\\" /Fd"DEBUG\VC141.PDB" /Gd /TP /analyze- /FC D:\REPOS\VEG1\MORVEG\NET7SSL\CLIENTTOGLOBALSERVER.CPP
^D:\REPOS\VEG1\MORVEG\NET7SSL\CONNECTION.CPP
/c /I../NET7 /ZI /nologo /W3 /WX- /diagnostics:classic /Od /Oy- /D WIN32 /D NET7SSL /D _MBCS /Gm /EHsc /RTC1 /MDd /GS /fp:precise /Zc:wchar_t /Zc:forScope /Zc:inline /Fo"DEBUG\\" /Fd"DEBUG\VC141.PDB" /Gd /TP /analyze- /FC D:\REPOS\VEG1\MORVEG\NET7SSL\CONNECTION.CPP
^D:\REPOS\VEG1\MORVEG\NET7SSL\CONNECTIONMANAGER.CPP
/c /I../NET7 /ZI /nologo /W3 /WX- /diagnostics:classic /Od /Oy- /D WIN32 /D NET7SSL /D _MBCS /Gm /EHsc /RTC1 /MDd /GS /fp:precise /Zc:wchar_t /Zc:forScope /Zc:inline /Fo"DEBUG\\" /Fd"DEBUG\VC141.PDB" /Gd /TP /analyze- /FC D:\REPOS\VEG1\MORVEG\NET7SSL\CONNECTIONMANAGER.CPP
^D:\REPOS\VEG1\MORVEG\NET7SSL\NET7SSL.CPP
/c /I../NET7 /ZI /nologo /W3 /WX- /diagnostics:classic /Od /Oy- /D WIN32 /D NET7SSL /D _MBCS /Gm /EHsc /RTC1 /MDd /GS /fp:precise /Zc:wchar_t /Zc:forScope /Zc:inline /Fo"DEBUG\\" /Fd"DEBUG\VC141.PDB" /Gd /TP /analyze- /FC D:\REPOS\VEG1\MORVEG\NET7SSL\NET7SSL.CPP
^D:\REPOS\VEG1\MORVEG\NET7SSL\SSL_CONNECTION.CPP
/c /I../NET7 /ZI /nologo /W3 /WX- /diagnostics:classic /Od /Oy- /D WIN32 /D NET7SSL /D _MBCS /Gm /EHsc /RTC1 /MDd /GS /fp:precise /Zc:wchar_t /Zc:forScope /Zc:inline /Fo"DEBUG\\" /Fd"DEBUG\VC141.PDB" /Gd /TP /analyze- /FC D:\REPOS\VEG1\MORVEG\NET7SSL\SSL_CONNECTION.CPP
^D:\REPOS\VEG1\MORVEG\NET7SSL\SSL_LISTENER.CPP
/c /I../NET7 /ZI /nologo /W3 /WX- /diagnostics:classic /Od /Oy- /D WIN32 /D NET7SSL /D _MBCS /Gm /EHsc /RTC1 /MDd /GS /fp:precise /Zc:wchar_t /Zc:forScope /Zc:inline /Fo"DEBUG\\" /Fd"DEBUG\VC141.PDB" /Gd /TP /analyze- /FC D:\REPOS\VEG1\MORVEG\NET7SSL\SSL_LISTENER.CPP
^D:\REPOS\VEG1\MORVEG\NET7SSL\SSL_SERVERMANAGER.CPP
/c /I../NET7 /ZI /nologo /W3 /WX- /diagnostics:classic /Od /Oy- /D WIN32 /D NET7SSL /D _MBCS /Gm /EHsc /RTC1 /MDd /GS /fp:precise /Zc:wchar_t /Zc:forScope /Zc:inline /Fo"DEBUG\\" /Fd"DEBUG\VC141.PDB" /Gd /TP /analyze- /FC D:\REPOS\VEG1\MORVEG\NET7SSL\SSL_SERVERMANAGER.CPP
^D:\REPOS\VEG1\MORVEG\NET7SSL\TCPLISTENER_B.CPP
/c /I../NET7 /ZI /nologo /W3 /WX- /diagnostics:classic /Od /Oy- /D WIN32 /D NET7SSL /D _MBCS /Gm /EHsc /RTC1 /MDd /GS /fp:precise /Zc:wchar_t /Zc:forScope /Zc:inline /Fo"DEBUG\\" /Fd"DEBUG\VC141.PDB" /Gd /TP /analyze- /FC D:\REPOS\VEG1\MORVEG\NET7SSL\TCPLISTENER_B.CPP
^D:\REPOS\VEG1\MORVEG\NET7SSL\UDPCLIENT.CPP
/c /I../NET7 /ZI /nologo /W3 /WX- /diagnostics:classic /Od /Oy- /D WIN32 /D NET7SSL /D _MBCS /Gm /EHsc /RTC1 /MDd /GS /fp:precise /Zc:wchar_t /Zc:forScope /Zc:inline /Fo"DEBUG\\" /Fd"DEBUG\VC141.PDB" /Gd /TP /analyze- /FC D:\REPOS\VEG1\MORVEG\NET7SSL\UDPCLIENT.CPP
^D:\REPOS\VEG1\MORVEG\NET7SSL\WESTWOODRC4.CPP
/c /I../NET7 /ZI /nologo /W3 /WX- /diagnostics:classic /Od /Oy- /D WIN32 /D NET7SSL /D _MBCS /Gm /EHsc /RTC1 /MDd /GS /fp:precise /Zc:wchar_t /Zc:forScope /Zc:inline /Fo"DEBUG\\" /Fd"DEBUG\VC141.PDB" /Gd /TP /analyze- /FC D:\REPOS\VEG1\MORVEG\NET7SSL\WESTWOODRC4.CPP
^D:\REPOS\VEG1\MORVEG\NET7SSL\WESTWOODRSA.CPP
/c /I../NET7 /ZI /nologo /W3 /WX- /diagnostics:classic /Od /Oy- /D WIN32 /D NET7SSL /D _MBCS /Gm /EHsc /RTC1 /MDd /GS /fp:precise /Zc:wchar_t /Zc:forScope /Zc:inline /Fo"DEBUG\\" /Fd"DEBUG\VC141.PDB" /Gd /TP /analyze- /FC D:\REPOS\VEG1\MORVEG\NET7SSL\WESTWOODRSA.CPP
