^D:\REPOS\VEG1\MORVEG\NET7SSL\DEBUG\ACCOUNTMANAGER.OBJ|D:\REPOS\VEG1\MORVEG\NET7SSL\DEBUG\CLIENTTOGLOBALSERVER.OBJ|D:\REPOS\VEG1\MORVEG\NET7SSL\DEBUG\CONNECTION.OBJ|D:\REPOS\VEG1\MORVEG\NET7SSL\DEBUG\CONNECTIONMANAGER.OBJ|D:\REPOS\VEG1\MORVEG\NET7SSL\DEBUG\MAILSLOTMANAGER.OBJ|D:\REPOS\VEG1\MORVEG\NET7SSL\DEBUG\MESSAGEQUEUE.OBJ|D:\REPOS\VEG1\MORVEG\NET7SSL\DEBUG\MUTEX.OBJ|D:\REPOS\VEG1\MORVEG\NET7SSL\DEBUG\MYSQLPLUS.OBJ|D:\REPOS\VEG1\MORVEG\NET7SSL\DEBUG\NET7SSL.OBJ|D:\REPOS\VEG1\MORVEG\NET7SSL\DEBUG\SSL_CONNECTION.OBJ|D:\REPOS\VEG1\MORVEG\NET7SSL\DEBUG\SSL_LISTENER.OBJ|D:\REPOS\VEG1\MORVEG\NET7SSL\DEBUG\SSL_SERVERMANAGER.OBJ|D:\REPOS\VEG1\MORVEG\NET7SSL\DEBUG\TCPLISTENER_B.OBJ|D:\REPOS\VEG1\MORVEG\NET7SSL\DEBUG\UDPCLIENT.OBJ|D:\REPOS\VEG1\MORVEG\NET7SSL\DEBUG\WESTWOODRC4.OBJ|D:\REPOS\VEG1\MORVEG\NET7SSL\DEBUG\WESTWOODRSA.OBJ
C:\PROGRAM FILES (X86)\WINDOWS KITS\10\LIB\10.0.17134.0\UM\X86\KERNEL32.LIB
C:\PROGRAM FILES (X86)\WINDOWS KITS\10\LIB\10.0.17134.0\UM\X86\USER32.LIB
C:\PROGRAM FILES (X86)\WINDOWS KITS\10\LIB\10.0.17134.0\UM\X86\GDI32.LIB
C:\PROGRAM FILES (X86)\WINDOWS KITS\10\LIB\10.0.17134.0\UM\X86\WINSPOOL.LIB
C:\PROGRAM FILES (X86)\WINDOWS KITS\10\LIB\10.0.17134.0\UM\X86\COMDLG32.LIB
C:\PROGRAM FILES (X86)\WINDOWS KITS\10\LIB\10.0.17134.0\UM\X86\ADVAPI32.LIB
C:\PROGRAM FILES (X86)\WINDOWS KITS\10\LIB\10.0.17134.0\UM\X86\SHELL32.LIB
C:\PROGRAM FILES (X86)\WINDOWS KITS\10\LIB\10.0.17134.0\UM\X86\OLE32.LIB
C:\PROGRAM FILES (X86)\WINDOWS KITS\10\LIB\10.0.17134.0\UM\X86\OLEAUT32.LIB
C:\PROGRAM FILES (X86)\WINDOWS KITS\10\LIB\10.0.17134.0\UM\X86\UUID.LIB
C:\PROGRAM FILES (X86)\WINDOWS KITS\10\LIB\10.0.17134.0\UM\X86\ODBC32.LIB
C:\PROGRAM FILES (X86)\WINDOWS KITS\10\LIB\10.0.17134.0\UM\X86\ODBCCP32.LIB
D:\REPOS\VEG1\MORVEG\NET7SSL\DEBUG\MAILSLOTMANAGER.OBJ
D:\REPOS\VEG1\MORVEG\NET7SSL\DEBUG\MESSAGEQUEUE.OBJ
D:\REPOS\VEG1\MORVEG\NET7SSL\DEBUG\MUTEX.OBJ
D:\REPOS\VEG1\MORVEG\NET7SSL\DEBUG\MYSQLPLUS.OBJ
D:\REPOS\VEG1\MORVEG\NET7SSL\DEBUG\ACCOUNTMANAGER.OBJ
D:\REPOS\VEG1\MORVEG\NET7SSL\DEBUG\CLIENTTOGLOBALSERVER.OBJ
D:\REPOS\VEG1\MORVEG\NET7SSL\DEBUG\CONNECTION.OBJ
D:\REPOS\VEG1\MORVEG\NET7SSL\DEBUG\CONNECTIONMANAGER.OBJ
D:\REPOS\VEG1\MORVEG\NET7SSL\DEBUG\NET7SSL.OBJ
D:\REPOS\VEG1\MORVEG\NET7SSL\DEBUG\SSL_CONNECTION.OBJ
D:\REPOS\VEG1\MORVEG\NET7SSL\DEBUG\SSL_LISTENER.OBJ
D:\REPOS\VEG1\MORVEG\NET7SSL\DEBUG\SSL_SERVERMANAGER.OBJ
D:\REPOS\VEG1\MORVEG\NET7SSL\DEBUG\TCPLISTENER_B.OBJ
D:\REPOS\VEG1\MORVEG\NET7SSL\DEBUG\UDPCLIENT.OBJ
D:\REPOS\VEG1\MORVEG\NET7SSL\DEBUG\WESTWOODRC4.OBJ
D:\REPOS\VEG1\MORVEG\NET7SSL\DEBUG\WESTWOODRSA.OBJ
C:\WINDOWS\GLOBALIZATION\SORTING\SORTDEFAULT.NLS
C:\PROGRAM FILES (X86)\MICROSOFT VISUAL STUDIO\2017\ENTERPRISE\VC\TOOLS\MSVC\14.15.26726\BIN\HOSTX86\X86\1033\LINKUI.DLL
C:\PROGRAM FILES (X86)\MICROSOFT VISUAL STUDIO\2017\ENTERPRISE\VC\TOOLS\MSVC\14.15.26726\LIB\X86\MSVCRTD.LIB
C:\PROGRAM FILES (X86)\MICROSOFT VISUAL STUDIO\2017\ENTERPRISE\VC\TOOLS\MSVC\14.15.26726\LIB\X86\OLDNAMES.LIB
C:\PROGRAM FILES (X86)\MICROSOFT VISUAL STUDIO\2017\ENTERPRISE\VC\TOOLS\MSVC\14.15.26726\LIB\X86\MSVCPRTD.LIB
C:\PROGRAM FILES (X86)\WINDOWS KITS\10\LIB\10.0.17134.0\UM\X86\WSOCK32.LIB
D:\REPOS\VEG1\MORVEG\LIBS\SSLEAY32.LIB
D:\REPOS\VEG1\MORVEG\LIBS\LIBEAY32.LIB
D:\REPOS\VEG1\MORVEG\LIBS\LIBMYSQL.LIB
C:\PROGRAM FILES (X86)\MICROSOFT VISUAL STUDIO\2017\ENTERPRISE\VC\TOOLS\MSVC\14.15.26726\LIB\X86\VCRUNTIMED.LIB
C:\PROGRAM FILES (X86)\WINDOWS KITS\10\LIB\10.0.17134.0\UCRT\X86\UCRTD.LIB
C:\PROGRAM FILES (X86)\WINDOWS KITS\10\BIN\10.0.17134.0\X86\RC.EXE
C:\PROGRAM FILES (X86)\MICROSOFT VISUAL STUDIO\2017\ENTERPRISE\VC\TOOLS\MSVC\14.15.26726\BIN\HOSTX86\X86\CVTRES.EXE
C:\WINDOWS\SYSTEM32\TZRES.DLL
